{
  "sections": {
    "1638585231fe583a3d": {
      "type": "slider",
      "blocks": {
        "d81c35f5-fa77-42de-8fa2-b63e58859b68": {
          "type": "video_slide",
          "settings": {
            "video": "https:\/\/cdn.shopify.com\/s\/files\/1\/0564\/2974\/0198\/files\/Background_Vid_-_6mb.mp4?v=1636226073",
            "mb_background": "shopify:\/\/shop_images\/Flora_Pod_2_949c5974-20ea-4eb4-8f3f-8109bd7f0854.png",
            "content_in_container": false,
            "content_position": "center middle",
            "text_alignment": "center",
            "text_size": "large",
            "text_color": "white",
            "subheading": "",
            "title": "Save your plants!",
            "description": "<p>Know exactly what your plants need to thrive<\/p>",
            "image_link": "",
            "button_text": "Pre-order Now",
            "button_link": "shopify:\/\/products\/flora-pod-sensor",
            "button_style": "sf__btn-primary",
            "button_size": "",
            "show_footer": false,
            "footer_alignment": "end",
            "footer_text": "New Collection",
            "footer_button": "Shop Now",
            "footer_link": ""
          }
        },
        "16385852316bb7af87-0": {
          "type": "slider_item",
          "disabled": true,
          "settings": {
            "image_alignment": "center middle",
            "content_in_container": false,
            "content_position": "center middle",
            "text_alignment": "center",
            "text_size": "medium",
            "text_color": "black",
            "subheading": "",
            "title": "New Collection",
            "description": "<p>Tell your campaign through images<\/p>",
            "image_link": "",
            "button_text": "Shop now",
            "button_link": "",
            "button_style": "sf__btn-primary",
            "button_size": "",
            "show_footer": false,
            "footer_alignment": "end",
            "footer_text": "New Collection",
            "footer_button": "Shop Now",
            "footer_link": ""
          }
        },
        "16385852316bb7af87-1": {
          "type": "slider_item",
          "disabled": true,
          "settings": {
            "image_alignment": "center middle",
            "content_in_container": false,
            "content_position": "center middle",
            "text_alignment": "center",
            "text_size": "medium",
            "text_color": "black",
            "subheading": "",
            "title": "New Collection",
            "description": "<p>Tell your campaign through images<\/p>",
            "image_link": "",
            "button_text": "Shop now",
            "button_link": "",
            "button_style": "sf__btn-primary",
            "button_size": "",
            "show_footer": false,
            "footer_alignment": "end",
            "footer_text": "New Collection",
            "footer_button": "Shop Now",
            "footer_link": ""
          }
        },
        "16385852316bb7af87-2": {
          "type": "slider_item",
          "disabled": true,
          "settings": {
            "image_alignment": "center middle",
            "content_in_container": false,
            "content_position": "center middle",
            "text_alignment": "center",
            "text_size": "medium",
            "text_color": "black",
            "subheading": "",
            "title": "New Collection",
            "description": "<p>Tell your campaign through images<\/p>",
            "image_link": "",
            "button_text": "Shop now",
            "button_link": "",
            "button_style": "sf__btn-primary",
            "button_size": "",
            "show_footer": false,
            "footer_alignment": "end",
            "footer_text": "New Collection",
            "footer_button": "Shop Now",
            "footer_link": ""
          }
        }
      },
      "block_order": [
        "d81c35f5-fa77-42de-8fa2-b63e58859b68",
        "16385852316bb7af87-0",
        "16385852316bb7af87-1",
        "16385852316bb7af87-2"
      ],
      "settings": {
        "container": "w-full",
        "slideshow_height": "large",
        "show_overlay": false,
        "dots_position": "bottom",
        "dots_color": "dark",
        "show_dots": false,
        "show_arrows": false,
        "autorotate": false,
        "autorotate_speed": 5,
        "custom_class": ""
      }
    },
    "163850693111b072fa": {
      "type": "custom-content",
      "disabled": true,
      "blocks": {
        "1638506931f80a8f1e-0": {
          "type": "text",
          "disabled": true,
          "settings": {
            "title": "Talk about your brand",
            "subheading": "",
            "text": "<p>Use this text to share information about your brand with your customers. Describe a product, share announcements, or welcome customers to your store.<\/p>",
            "width": "50%",
            "alignment": "center",
            "align_text": "left",
            "text_size": "medium",
            "text_color": "black",
            "button_label": "",
            "button_link": "",
            "button_style": "sf__btn-primary",
            "button_size": "",
            "block_custom_class": ""
          }
        },
        "1638506931f80a8f1e-1": {
          "type": "image",
          "disabled": true,
          "settings": {
            "link": "",
            "width": "50%",
            "alignment": "center",
            "block_custom_class": ""
          }
        },
        "bac9a926-00f9-4b7c-a32a-390b8e97e4ae": {
          "type": "html",
          "settings": {
            "code": "<center><video loop=\"loop\" width=\"100%\" autoplay=\"\" controls=\"\">\n      <source src=\"\"> \n     \n    <\/source><\/video><\/center>",
            "width": "100%",
            "block_custom_class": ""
          }
        }
      },
      "block_order": [
        "1638506931f80a8f1e-0",
        "1638506931f80a8f1e-1",
        "bac9a926-00f9-4b7c-a32a-390b8e97e4ae"
      ],
      "settings": {
        "heading": "",
        "subheading": "",
        "description": "",
        "header_alignment": "center",
        "container": "container-fluid",
        "background_color": "",
        "gap": 30,
        "use_scroll_mobile": false,
        "gap_mobile": 16,
        "custom_class": ""
      }
    },
    "1638506953e01d6643": {
      "type": "image-with-text",
      "settings": {
        "heading": "",
        "subheading": "",
        "container": "container",
        "background_color": "rgba(0,0,0,0)",
        "item_gap": 20,
        "item_gap_mobile": 14,
        "image": "shopify:\/\/shop_images\/3.png",
        "link": "",
        "layout": "right",
        "image_column_size": "6",
        "title": "Flora Pod™ Sensors",
        "sub_title": "",
        "text": "<p>Our new patent-pending Flora Pod sensors tell you exactly what your plants need - take the guesswork out of growing your plant babies. Get AI-driven, real-time notifications sent to your phone about your plants, get rewarded for taking care of them, share their progress in the Community Garden, and log your plants' journeys along the way!<\/p>",
        "text_size": "medium",
        "content_alignment": "left",
        "button_label": "Preorder Now",
        "button_link": "shopify:\/\/products\/flora-pod-sensor",
        "button_style": "sf__btn-primary",
        "button_size": "",
        "custom_class": ""
      }
    },
    "1638508075cc5c7485": {
      "type": "icon-box",
      "blocks": {
        "163850807549a35c6a-0": {
          "type": "iconbox",
          "settings": {
            "image": "shopify:\/\/shop_images\/Group_479_1x_975d58c3-f134-4c75-83cf-148983d69863.png",
            "title": "Built for Plants",
            "description": "<p>Our sensors will be completely waterproof and dirtproof (per IP67 protocols). Come rain or shine, our sensors will weather it out.<\/p>",
            "link": "",
            "button_label": "",
            "button_link": "",
            "button_style": "sf__btn-link",
            "button_size": ""
          }
        },
        "163850807549a35c6a-1": {
          "type": "iconbox",
          "settings": {
            "image": "shopify:\/\/shop_images\/Group_484.png",
            "title": "Long-lasting Battery",
            "description": "<p>Our battery lasts for approximately 4 weeks on a single charge. Recharge your sensors in as little as 2 hours to keep it running for another month.<\/p>",
            "link": "",
            "button_label": "",
            "button_link": "",
            "button_style": "sf__btn-link",
            "button_size": ""
          }
        },
        "163850807549a35c6a-2": {
          "type": "iconbox",
          "settings": {
            "image": "shopify:\/\/shop_images\/Group_485.png",
            "title": "Powerful Data Visualizations",
            "description": "<p>Flora's web and mobile apps provide you with AI-driven, species-specific alerts, benchmarks, and indicators.<\/p>",
            "link": "",
            "button_label": "",
            "button_link": "",
            "button_style": "sf__btn-link",
            "button_size": ""
          }
        },
        "7291d713-fcfb-4bf6-bb73-4df4082acfe5": {
          "type": "iconbox",
          "settings": {
            "image": "shopify:\/\/shop_images\/Group_486.png",
            "title": "Community of Plant Buds",
            "description": "<p>Flora provides an active community of gardeners, plant enthusiasts, and newbies that are all about nurturing growth.<\/p>",
            "link": "",
            "button_label": "",
            "button_link": "",
            "button_style": "sf__btn-link",
            "button_size": ""
          }
        }
      },
      "block_order": [
        "163850807549a35c6a-0",
        "163850807549a35c6a-1",
        "163850807549a35c6a-2",
        "7291d713-fcfb-4bf6-bb73-4df4082acfe5"
      ],
      "settings": {
        "heading": "Wireless smart sensors for any plant, farm, or garden",
        "subheading": "",
        "description": "Flora was designed with the plant enthusiast in mind: Affordable, simple, and beautifully designed.",
        "header_alignment": "center",
        "container": "container-fluid",
        "background_color": "#f8f8f8",
        "item_per_row": 2,
        "item_gap": 16,
        "item_gap_mobile": 10,
        "card_style": "vertical",
        "image_max_width": "70px",
        "content_alignment": "center",
        "hover_effect": "zoom-in",
        "enable_slider": false,
        "show_pagination": false,
        "show_navigation": false,
        "use_scroll_mobile": false,
        "use_grid_column_mb": true,
        "custom_class": ""
      }
    },
    "1638509009d680282a": {
      "type": "custom-content",
      "blocks": {
        "1638509008a5010291-1": {
          "type": "image",
          "settings": {
            "image": "shopify:\/\/shop_images\/Buy_one_plant_one_full_mob.png",
            "link": "",
            "width": "100%",
            "alignment": "center",
            "block_custom_class": ""
          }
        }
      },
      "block_order": [
        "1638509008a5010291-1"
      ],
      "settings": {
        "heading": "",
        "subheading": "",
        "description": "",
        "header_alignment": "center",
        "container": "w-full",
        "background_color": "",
        "gap": 30,
        "use_scroll_mobile": false,
        "gap_mobile": 16,
        "custom_class": ""
      }
    },
    "16385090287dcc7825": {
      "type": "image-with-text",
      "settings": {
        "heading": "<center> Monitor your plants wherever, whenever through our mobile app<\/center>",
        "subheading": "",
        "container": "container-fluid",
        "background_color": "rgba(0,0,0,0)",
        "item_gap": 64,
        "item_gap_mobile": 30,
        "image": "shopify:\/\/shop_images\/Group_513_f2dc08a1-9440-4104-a8f9-5714a14108e1.png",
        "link": "https:\/\/apps.apple.com\/app\/id1556133160",
        "layout": "left",
        "image_column_size": "5",
        "title": "",
        "sub_title": "",
        "text": "<p><strong>Powerful Sync and AI <\/strong><br\/><br\/>Got a specific strain or species you want to connect to a sensor? Our database will automatically detect proper thresholds and data for that plant and let you know how your plants are stacking up.<br\/><br\/><strong>Realtime Reporting <\/strong><br\/><br\/>Never miss an alert that could save your plants. Get real-time stats on all of your sensors, connected to a plant of your choice.<\/p>",
        "text_size": "medium",
        "content_alignment": "left",
        "button_label": "Check out our FREE app",
        "button_link": "https:\/\/apps.apple.com\/app\/id1556133160",
        "button_style": "sf__btn-primary",
        "button_size": "",
        "custom_class": ""
      }
    },
    "16385105592208d16c": {
      "type": "newsletter",
      "disabled": true,
      "settings": {
        "container": "w-full",
        "background_color": "",
        "form_layout": "vertical",
        "form_design": "2",
        "heading": "Subscribe for tips on plant care, rare plant deals, discounts, and more!",
        "description": "",
        "email_placeholder": "Enter your email",
        "submit_button": "Subscribe",
        "text_color": "black",
        "show_icon": false,
        "icon_img_width": "30",
        "show_agreement": false,
        "term_condition_text": "<p>I agree to the Terms and Conditions.<\/p>"
      }
    },
    "1638587673a58ab27d": {
      "type": "icon-box",
      "blocks": {
        "1638587673a50438eb-0": {
          "type": "iconbox",
          "settings": {
            "image": "shopify:\/\/shop_images\/Step_1_illustration.png",
            "title": "Step 1",
            "description": "<p>Plant a Flora Pod at least 2 inches into the soil<\/p>",
            "link": "",
            "button_label": "",
            "button_link": "",
            "button_style": "sf__btn-link",
            "button_size": ""
          }
        },
        "1638587673a50438eb-1": {
          "type": "iconbox",
          "settings": {
            "image": "shopify:\/\/shop_images\/Step_2_illustration.png",
            "title": "Step 2",
            "description": "<p>Press the button to enable connectivity within seconds<\/p>",
            "link": "",
            "button_label": "",
            "button_link": "",
            "button_style": "sf__btn-link",
            "button_size": ""
          }
        },
        "c3d45f56-6145-4658-835b-ae10d2527b39": {
          "type": "iconbox",
          "settings": {
            "image": "shopify:\/\/shop_images\/Step_3_illustration.png",
            "title": "Step 3",
            "description": "<p>Snap a pic with our app to identify your plant and pair it with the sensor<\/p>",
            "link": "",
            "button_label": "",
            "button_link": "",
            "button_style": "sf__btn-link",
            "button_size": ""
          }
        },
        "1638587673a50438eb-2": {
          "type": "iconbox",
          "disabled": true,
          "settings": {
            "title": "Step 3",
            "description": "<p>Log into either the app or web app to detect the sensor and connect it!<\/p>",
            "link": "",
            "button_label": "",
            "button_link": "",
            "button_style": "sf__btn-link",
            "button_size": ""
          }
        }
      },
      "block_order": [
        "1638587673a50438eb-0",
        "1638587673a50438eb-1",
        "c3d45f56-6145-4658-835b-ae10d2527b39",
        "1638587673a50438eb-2"
      ],
      "settings": {
        "heading": "How does it work?",
        "subheading": "",
        "description": "Flora's wireless sensors are easy to setup, and can utilize WiFi and Bluetooth Low Energy. Connect in just 3 easy steps:",
        "header_alignment": "center",
        "container": "container-fluid",
        "background_color": "#f8f8f8",
        "item_per_row": 3,
        "item_gap": 30,
        "item_gap_mobile": 10,
        "card_style": "vertical",
        "image_max_width": "250px",
        "content_alignment": "center",
        "hover_effect": "zoom-in",
        "enable_slider": false,
        "show_pagination": false,
        "show_navigation": false,
        "use_scroll_mobile": false,
        "use_grid_column_mb": false,
        "custom_class": ""
      }
    },
    "16385105666738d2d5": {
      "type": "image-with-text",
      "disabled": true,
      "settings": {
        "heading": "<center> <\/center>",
        "subheading": "",
        "container": "container-fluid",
        "background_color": "#f8f8f8",
        "item_gap": 100,
        "item_gap_mobile": 30,
        "image": "shopify:\/\/shop_images\/front_5000x_2.png",
        "link": "",
        "layout": "left",
        "image_column_size": "6",
        "title": "Connect a sensor",
        "sub_title": "",
        "text": "<p>:<br\/><br\/><strong>1.<\/strong> <br\/><br\/><strong>2.<\/strong> <br\/><br\/><strong>3.<\/strong> <\/p>",
        "text_size": "medium",
        "content_alignment": "left",
        "button_label": "",
        "button_link": "",
        "button_style": "sf__btn-link",
        "button_size": "",
        "custom_class": ""
      }
    },
    "16385110908b8df9b6": {
      "type": "image-with-text",
      "settings": {
        "heading": "",
        "subheading": "",
        "container": "container-fluid",
        "background_color": "rgba(0,0,0,0)",
        "item_gap": 28,
        "item_gap_mobile": 30,
        "image": "shopify:\/\/shop_images\/Group_513_f2dc08a1-9440-4104-a8f9-5714a14108e1.png",
        "link": "",
        "layout": "right",
        "image_column_size": "5",
        "title": "Set benchmarks and custom alerts",
        "sub_title": "",
        "text": "<p>Our mobile iOS app allows you to setup specific thresholds for alerts related to ambient temperature, soil moisture, soil temperature, humidity, light, and more. Setup the thresholds you need to ensure Flora has your back.<\/p>",
        "text_size": "medium",
        "content_alignment": "left",
        "button_label": "",
        "button_link": "",
        "button_style": "sf__btn-link",
        "button_size": "",
        "custom_class": ""
      }
    },
    "16385111096b64e816": {
      "type": "image-with-text",
      "settings": {
        "heading": "",
        "subheading": "",
        "container": "container-fluid",
        "background_color": "#f8f8f8",
        "item_gap": 78,
        "item_gap_mobile": 30,
        "image": "shopify:\/\/shop_images\/Group_514_462f103c-f30d-4c53-8366-837281a2fb97.png",
        "link": "",
        "layout": "left",
        "image_column_size": "5",
        "title": "Gather insights through our analytics and dashboards",
        "sub_title": "",
        "text": "<p>Our sensors gather multiple data points several times every hour to gather data that you can then take action on. Our smart charts and visuals make it easy to:<br\/><\/p><p>Know when to plant<\/p><p>Know when to add or remove nutrients<\/p><p>Know what environmental factors to  optimize<\/p><p>Know when you need more or less water<br\/><\/p>",
        "text_size": "medium",
        "content_alignment": "left",
        "button_label": "",
        "button_link": "",
        "button_style": "sf__btn-link",
        "button_size": "",
        "custom_class": ""
      }
    },
    "1638511727b8c11469": {
      "type": "custom-content",
      "disabled": true,
      "blocks": {
        "1638511726ea8d69bd-0": {
          "type": "text",
          "settings": {
            "title": "",
            "subheading": "",
            "text": "",
            "width": "100%",
            "alignment": "center",
            "align_text": "center",
            "text_size": "medium",
            "text_color": "black",
            "button_label": "",
            "button_link": "",
            "button_style": "sf__btn-primary",
            "button_size": "",
            "block_custom_class": ""
          }
        },
        "1638511726ea8d69bd-1": {
          "type": "image",
          "disabled": true,
          "settings": {
            "link": "",
            "width": "50%",
            "alignment": "center",
            "block_custom_class": ""
          }
        }
      },
      "block_order": [
        "1638511726ea8d69bd-0",
        "1638511726ea8d69bd-1"
      ],
      "settings": {
        "heading": "",
        "subheading": "",
        "description": "",
        "header_alignment": "center",
        "container": "container-fluid",
        "background_color": "",
        "gap": 30,
        "use_scroll_mobile": false,
        "gap_mobile": 16,
        "custom_class": ""
      }
    },
    "1638511717b7b47e83": {
      "type": "new-featured-product",
      "disabled": true,
      "blocks": {
        "d8e69761-b6cf-445e-b933-af3585409073": {
          "type": "text",
          "settings": {
            "text": "Pre-orders ship March 2022",
            "text_style": "uppercase"
          }
        },
        "16385117179353cc15-0": {
          "type": "title",
          "settings": {}
        },
        "16385117179353cc15-1": {
          "type": "price",
          "settings": {}
        },
        "16385117179353cc15-2": {
          "type": "variant_picker",
          "settings": {}
        },
        "16385117179353cc15-3": {
          "type": "buy_buttons",
          "settings": {
            "show_quantity_selector": true,
            "show_atc_button": true,
            "show_dynamic_checkout": true
          }
        },
        "8247d6ba-cb1d-4957-b09b-e036eeb557ac": {
          "type": "short_description",
          "disabled": true,
          "settings": {}
        },
        "113681d2-d214-4bac-ad20-2f722874becd": {
          "type": "trust_badge",
          "disabled": true,
          "settings": {
            "trust_badges_text": "<p>Guarantee safe & secure checkout<\/p>",
            "trust_badges_image_width": "100%",
            "position": "below"
          }
        },
        "9ab6d058-d65f-4d72-b6ba-57780e4a0129": {
          "type": "description",
          "disabled": true,
          "settings": {}
        }
      },
      "block_order": [
        "d8e69761-b6cf-445e-b933-af3585409073",
        "16385117179353cc15-0",
        "16385117179353cc15-1",
        "16385117179353cc15-2",
        "16385117179353cc15-3",
        "8247d6ba-cb1d-4957-b09b-e036eeb557ac",
        "113681d2-d214-4bac-ad20-2f722874becd",
        "9ab6d058-d65f-4d72-b6ba-57780e4a0129"
      ],
      "settings": {
        "container": "container-fluid",
        "background_color": "rgba(0,0,0,0)",
        "featured_product": "flora-pod-sensor-1",
        "column_gap": 100,
        "column_gap_mobile": 30,
        "image_placement": "left",
        "custom_class": ""
      }
    },
    "1638593772c332ad15": {
      "type": "image-with-text",
      "settings": {
        "heading": "",
        "subheading": "",
        "container": "container-fluid",
        "background_color": "rgba(0,0,0,0)",
        "item_gap": 100,
        "item_gap_mobile": 30,
        "image": "shopify:\/\/shop_images\/Flora_Pod_2_1600x_ed6844ff-6527-4b14-b592-f5c644ff2e6d.png",
        "link": "",
        "layout": "right",
        "image_column_size": "6",
        "title": "Pre-order yours today!",
        "sub_title": "",
        "text": "<p>We're currently closing up our first batch of preorders that will roll out in March, 2022. Depending on supply chain conditions, all subsequent batches may have to wait until April-May 2022 for delivery. All orders are shipped from the United States and we offer shipping internationally as well!<\/p>",
        "text_size": "medium",
        "content_alignment": "left",
        "button_label": "Save My Sensor",
        "button_link": "shopify:\/\/products\/flora-pod-sensor",
        "button_style": "sf__btn-primary",
        "button_size": "",
        "custom_class": ""
      }
    },
    "163874627379672e0c": {
      "type": "newsletter",
      "settings": {
        "container": "container-fluid",
        "background_color": "#77df5c",
        "form_layout": "vertical",
        "form_design": "1",
        "heading": "Always Stay Informed",
        "description": "<p>Get a sneak peek on upcoming promos and get 10% off your first order!<\/p>",
        "email_placeholder": "Enter your email",
        "submit_button": "Subscribe",
        "text_color": "black",
        "show_icon": false,
        "icon_img_width": "30",
        "show_agreement": false,
        "term_condition_text": "<p>I agree to the Terms and Conditions.<\/p>"
      }
    }
  },
  "order": [
    "1638585231fe583a3d",
    "163850693111b072fa",
    "1638506953e01d6643",
    "1638508075cc5c7485",
    "1638509009d680282a",
    "16385090287dcc7825",
    "16385105592208d16c",
    "1638587673a58ab27d",
    "16385105666738d2d5",
    "16385110908b8df9b6",
    "16385111096b64e816",
    "1638511727b8c11469",
    "1638511717b7b47e83",
    "1638593772c332ad15",
    "163874627379672e0c"
  ]
}