{
  "sections": {
    "main": {
      "type": "page-faqs",
      "blocks": {
        "accordion-1": {
          "type": "accordion",
          "settings": {
            "title": "How does the sensor work?",
            "content": "<p>The Flora Pod uses a combination of Bluetooth BLE and WiFi to connect wireless to your Flora app. It's as simple as pressing the button on the device, pairing your phone, and then setting up some basic info so your sensor can immediately start collecting data! You can customize settings like the data frequency, your sensor's name, thresholds for different sensors, and more.<\/p>",
            "open": true
          }
        },
        "accordion-2": {
          "type": "accordion",
          "settings": {
            "title": "How long does the battery last? How is it charged?",
            "content": "<p>On the preset factory settings of hourly data readings, the Flora Pod sensor lasts approximately 8 weeks on a single 2h charge. Recharge your device with the provided micro-USB cable and it should be good to go.<\/p>",
            "open": false
          }
        },
        "accordion-3": {
          "type": "accordion",
          "settings": {
            "title": "Can I use this for multiple plants?",
            "content": "<p>Absolutely! Flora is designed to be easily pairable\/unpairable, so you can pair it with a new plant quite easily. Some people use the device to quickly check moisture\/light\/humidity levels as well. We do recommend buying multiple sensors if you have multiple plants you want to actively monitor - the sensor's ability to recommend useful information gets better over time, so the longer it is able to bond with a plant, the better!<\/p>",
            "open": false
          }
        },
        "accordion-5": {
          "type": "accordion",
          "settings": {
            "title": "Can this be used outside? Is it safe?",
            "content": "<p>The Flora Pod was designed from the ground up to be durable, weatherproof, dirt-proof, and waterproof. This means you can place the sensor anywhere near the range of your WiFi signal outside and it will still work! The device is safe to use as long as temperatures do not exceed 70<strong>°C<\/strong>\/158<strong>°F <\/strong>or stay below 0<strong>°C<\/strong>\/32<strong>°F.<\/strong><\/p>",
            "open": false
          }
        },
        "8986e406-425f-43e7-b3ca-5f6ad6b89bf8": {
          "type": "accordion",
          "settings": {
            "title": "When will my order be shipped?",
            "content": "<p>We ship out thousands of packages each day, but due to Covid-19, there <br\/>may be delays in individual orders as we work to get everything <br\/>processed. We are doing our best to get your order to you as quickly as <br\/>we can. Please be just a bit more patient with us, and you should have <br\/>your order delivered soon.<\/p>",
            "open": false
          }
        },
        "173a4eec-7e65-4fe2-914a-1c21f444e731": {
          "type": "accordion",
          "settings": {
            "title": "How do I track my order?",
            "content": "<p>Look for an automated email with tracking information when your order <br\/>ships or Email our support team and quote your order number\/customer <br\/>reference number. We’ll help you with the rest.<\/p>",
            "open": false
          }
        },
        "ae3e3f6f-b34c-45a4-add7-3af9143d9527": {
          "type": "accordion",
          "settings": {
            "title": "Do you ship worldwide?",
            "content": "<p>We have customers all across the globe, so we can ship to anywhere with a letterbox. We usually dispatch orders within 3-5 working days. Delivery times vary based on selected service and destination. International orders may take up to 4 weeks to deliver due to varying customs processing times. Regular post ranges from 3 to 28 working days depending on the shipping address.<\/p>",
            "open": false
          }
        },
        "f88b54f1-ef72-4365-b044-f0b034a7cac9": {
          "type": "accordion",
          "settings": {
            "title": "Can I cancel my order?",
            "content": "<p>Yes! You can cancel your preorder up until we officially ship your order in March, 2022.<\/p>",
            "open": false
          }
        },
        "40e8d0b8-a969-46ca-90b2-3bba843b8ea5": {
          "type": "accordion",
          "settings": {
            "title": "What are my payment options?",
            "content": "<p>We happily accept Mastercard, Visa, American Express, PayPal, Apple Pay, Shop Pay, Google Pay, and a host of other options. All transactions are secured and encrypted.<\/p>",
            "open": false
          }
        }
      },
      "block_order": [
        "accordion-1",
        "accordion-2",
        "accordion-3",
        "accordion-5",
        "8986e406-425f-43e7-b3ca-5f6ad6b89bf8",
        "173a4eec-7e65-4fe2-914a-1c21f444e731",
        "ae3e3f6f-b34c-45a4-add7-3af9143d9527",
        "f88b54f1-ef72-4365-b044-f0b034a7cac9",
        "40e8d0b8-a969-46ca-90b2-3bba843b8ea5"
      ],
      "settings": {
        "container": "container-fluid",
        "menu": ""
      }
    }
  },
  "order": [
    "main"
  ]
}